{
    "fluentMethods": true,
    "relationships": [],
    "fields": [
        {
            "fieldName": "code",
            "fieldType": "String"
        },
        {
            "fieldName": "name",
            "fieldType": "String"
        },
        {
            "fieldName": "createdDate",
            "fieldType": "LocalDate"
        },
        {
            "fieldName": "updatedDate",
            "fieldType": "LocalDate"
        },
        {
            "fieldName": "customerContacts",
            "fieldType": "String"
        },
        {
            "fieldName": "addresses",
            "fieldType": "String"
        }
    ],
    "changelogDate": "20180918130147",
    "entityTableName": "customer",
    "dto": "no",
    "pagination": "no",
    "service": "no",
    "jpaMetamodelFiltering": false
}