{
    "fluentMethods": true,
    "relationships": [],
    "fields": [
        {
            "fieldName": "code",
            "fieldType": "String"
        },
        {
            "fieldName": "createdDate",
            "fieldType": "LocalDate"
        },
        {
            "fieldName": "updatedDate",
            "fieldType": "LocalDate"
        },
        {
            "fieldName": "status",
            "fieldType": "String"
        },
        {
            "fieldName": "project",
            "fieldType": "String"
        }
    ],
    "changelogDate": "20180918130155",
    "entityTableName": "invoice",
    "dto": "no",
    "pagination": "no",
    "service": "no",
    "jpaMetamodelFiltering": false
}